…
```r
new_dataframe <- subset(msleep, select=c("name", "genus", "bodywt"))
```

```r
new_dataframe <- arrange(new_dataframe, desc(bodywt))
```

```r
print(new_dataframe)
```

```
## # A tibble: 83 x 3
##    name                 genus         bodywt
##    <chr>                <chr>          <dbl>
##  1 African elephant     Loxodonta      6654 
##  2 Asian elephant       Elephas        2547 
##  3 Giraffe              Giraffa         900.
##  4 Pilot whale          Globicephalus   800 
##  5 Cow                  Bos             600 
##  6 Horse                Equus           521 
##  7 Brazilian tapir      Tapirus         208.
##  8 Donkey               Equus           187 
##  9 Bottle-nosed dolphin Tursiops        173.
## 10 Tiger                Panthera        163.
## # … with 73 more rows
```

# 4

```r
small_dataframe <- msleep %>%
  select(sleep_total, bodywt) %>%
  filter(bodywt<=200)
```

```r
print(small_dataframe)
```

```
## # A tibble: 76 x 2
##    sleep_total bodywt
##          <dbl>  <dbl>
##  1        12.1 50    
##  2        17    0.48 
##  3        14.4  1.35 
##  4        14.9  0.019
##  5        14.4  3.85 
##  6         8.7 20.5  
##  7         7    0.045
##  8        10.1 14    
##  9         3   14.8  
## 10         5.3 33.5  
## # … with 66 more rows
```
…
