…
```r
life_history_na %>%
  group_by(max_life) %>%
  summarize(min_max_life=min(max_life, na.rm=TRUE),
          max_max_life=max(max_life, na.rm=TRUE),
          mean_max_life=mean(max_life, na.rm=TRUE),
          stdev_max_life=sd(max_life, na.rm=TRUE),
          total=n())
```

```
## # A tibble: 246 x 6
##    max_life min_max_life max_max_life mean_max_life stdev_max_life total
##       <dbl>        <dbl>        <dbl>         <dbl>          <dbl> <int>
##  1       12           12           12            12             NA     1
##  2       14           14           14            14              0     2
##  3       16           16           16            16              0     2
##  4       17           17           17            17             NA     1
##  5       18           18           18            18              0     7
##  6       20           20           20            20             NA     1
##  7       21           21           21            21              0     2
##  8       22           22           22            22              0     2
##  9       24           24           24            24              0     9
## 10       25           25           25            25             NA     1
## # … with 236 more rows
```
…
